[
  {
    "id": 0,
    "customer": "1",
    "from": "Joinville",
    "packages": [
      {
        "id": "1",
        "destination": "Blumenau",
        "weight": 7535
      },
      {
        "id": "2",
        "destination": "Blumenau",
        "weight": 15070
      },
      {
        "id": "3",
        "destination": "Florianopólis",
        "weight": 15070
      },
      {
        "id": "4",
        "destination": "Florianopólis",
        "weight": 7535
      },
      {
        "id": "5",
        "destination": "Curitiba",
        "weight": 7535
      }
    ]
  },
  {
    "id": 1,
    "customer": "2",
    "from": "Joinville",
    "packages": [
      {
        "id": "1",
        "destination": "Blumenau",
        "weight": 7535
      },
      {
        "id": "5",
        "destination": "Criciúma",
        "weight": 12535
      }
    ]
  },
  {
    "id": 2,
    "customer": "3",
    "from": "Florianópolis",
    "packages": [
      {
        "id": "1",
        "destination": "Curitiba",
        "weight": 7535
      },
      {
        "id": "2",
        "destination": "Curitiba",
        "weight": 15070
      },
      {
        "id": "3",
        "destination": "Curitiba",
        "weight": 15070
      },
      {
        "id": "4",
        "destination": "Curitiba",
        "weight": 7535
      }
    ]
  },
  {
    "id": 3,
    "customer": "2",
    "from": "Curitiba",
    "packages": [
      {
        "id": "1",
        "destination": "Joinville",
        "weight": 7535
      },
      {
        "id": "2",
        "destination": "Joinville",
        "weight": 15070
      },
      {
        "id": "3",
        "destination": "Jaraguá",
        "weight": 15070
      }
    ]
  },
  {
    "id": 4,
    "customer": "1",
    "from": "Joinville",
    "packages": [
      {
        "id": "1",
        "destination": "Blumenau",
        "weight": 7535
      },
      {
        "id": "2",
        "destination": "Blumenau",
        "weight": 15070
      },
      {
        "id": "3",
        "destination": "Florianopólis",
        "weight": 15070
      },
      {
        "id": "4",
        "destination":"Florianopólis",
        "weight": 7535
      },
      {
        "id": "5",
        "destination": "Curitiba",
        "weight": 7535
      }
    ]
  },
  {
    "id": 5,
    "customer": "1",
    "from": "Penha",
    "packages": [
      {
        "id": "1",
        "destination": "Blumenau",
        "weight": 7535
      },
      {
        "id": "2",
        "destination": "Joinville",
        "weight": 15070
      },
      {
        "id": "3",
        "destination": "Jaraguá",
        "weight": 15070
      },
      {
        "id": "4",
        "destination": "Florianopólis",
        "weight": 7535
      }
    ]
  }
]  